{
    "c": {
        "friendlyName": "C",
        "defaultKey": "make",
        "make": {
            "script": "./configure && make && make test"
        }
    },
    "cpp": {
        "friendlyName": "C++",
        "defaultKey": "make",
        "make": {
            "script": "./configure && make && make test"
        }
    },
    "clojure": {
        "friendlyName": "Clojure",
        "defaultKey": "lein",
        "lein": {
            "script": "lein test"
        }
    },
    "erlang": {
        "friendlyName": "Erlang",
        "defaultKey": "rebar1",
        "rebar1": {
            "fileExistsCondition": "rebar.config",
            "fallbackKey": "rebar2",
            "install": "rebar get-deps",
            "script": "rebar compile && rebar skip_deps=true eunit"
        },
        "rebar2": {
            "fileExistsCondition": "Rebar.config",
            "fallbackKey": "make",
            "install": "rebar get-deps",
            "script": "rebar compile && rebar skip_deps=true eunit"
        },
        "make": {
            "script": "make test"
        }
    },
    "go": {
        "friendlyName": "Go",
        "defaultKey": "make",
        "make": {
            "fileExistsCondition": "Makefile",
            "fallbackKey": "go",
            "install": "go get -d -v ./... && go build -v ./...",
            "script": "make"
        },
        "go": {
            "install": "go get -d -v ./... && go build -v ./...",
            "script": "go test -v ./..."
        }
    },
    "groovy": {
        "friendlyName": "Groovy",
        "defaultKey": "gradlew",
        "gradlew": {
            "fileExistsCondition": "gradlew",
            "fallbackKey": "gradle",
            "install": "./gradlew assemble",
            "script": "./gradlew check"
        },
        "gradle": {
            "fileExistsCondition": "build.gradle",
            "fallbackKey": "maven",
            "install": "gradle assemble",
            "script": "gradle check"
        },
        "maven": {
            "fileExistsCondition": "pom.xml",
            "fallbackKey": "ant",
            "install": "mvn install -DskipTests=true",
            "script": "mvn test",
        },
        "ant": {
            "fileExistsCondition": "build.xml",
            "script": "ant test",
        }
    },
    "haskell": {
        "friendlyName": "Haskell",
        "defaultKey": "cabal",
        "cabal": {
            "install": "cabal install --only-dependencies --enable-tests",
            "script": "cabal configure --enable-tests && cabal build && cabal test"
        }
    },
    "java": {
        "friendlyName": "Java",
        "defaultKey": "gradlew",
        "gradlew": {
            "fileExistsCondition": "gradlew",
            "fallbackKey": "gradle",
            "install": "./gradlew assemble",
            "script": "./gradlew check"
        },
        "gradle": {
            "fileExistsCondition": "build.gradle",
            "fallbackKey": "maven",
            "install": "gradle assemble",
            "script": "gradle check"
        },
        "maven": {
            "fileExistsCondition": "pom.xml",
            "fallbackKey": "ant",
            "install": "mvn install -DskipTests=true",
            "script": "mvn test",
        },
        "ant": {
            "fileExistsCondition": "build.xml",
            "script": "ant test",
        }
    },
    "node_js": {
        "friendlyName": "Node.JS",
        "defaultKey": "npm",
        "npm": {
            "install": "npm install",
            "script": "npm test"
        }
    },
    "perl": {
        "friendlyName": "Perl",
        "defaultKey": "Module::Build",
        "Module::Build": {
            "fileExistsCondition": "Build.PL",
            "fallbackKey": "EUMM",
            "install": "cpanm --quiet --installdeps --notest .",
            "script": "perl Build.PL && ./Build test"
        },
        "EUMM": {
            "fileExistsCondition": "Makefile.PL",
            "fallbackKey": "make",
            "install": "cpanm --quiet --installdeps --notest .",
            "script": "perl Makefile.PL && make test"
        },
        "make": {
            "install": "cpanm --quiet --installdeps --notest .",
            "script": "make"
        }
    },
    "php": {
        "friendlyName": "PHP",
        "defaultKey": "phpunit",
        "phpunit": {
            "script": "phpunit",
        }
    },
    "python": {
        "friendlyName": "Python",
        "defaultKey": "dummy",
        "dummy": {}
    },
    "ruby": {
        "friendlyName": "Ruby",
        "defaultKey": "rake1",
        "rake1": {
            "fileExistsCondition": "Gemfile.lock",
            "fallbackKey": "rake2",
            "install": "bundle install --jobs=3 --retry=3 --deployment",
            "script": "bundle exec rake"
        },
        "rake2": {
            "install": "bundle install --jobs=3 --retry=3",
            "script": "bundle exec rake"
        }
    },
    "rust": {
        "friendlyName": "Rust",
        "defaultKey": "cargo",
        "cargo": {
            "script": [
                "cargo build --verbose",
                "cargo test --verbose"
            ]
        }
    },
    "scala": {
        "friendlyName": "Scala",
        "defaultKey": "sbt",
        "sbt": {
            "script": "sbt ++$TRAVIS_SCALA_VERSION test"
        }
    }
}
