{
    "toolchains": {
        "groovy": ["env", "jdk"],
        "java": ["env", "jdk"],
        "python": ["env", "python"],
        "ruby": ["gemfile", "env", "rvm", "jdk"]
    },
    "compiler": {
        "gcc": [
            "export CXX=\"g++\"",
            "export CC=\"gcc\""
        ],
        "clang": [
            "export CXX=\"clang++\"",
            "export CC=\"clang\""
        ]
    },
    "env": {
        "secureSupport": true,
        "*": [
            "export ${jervis_toolchain_ivalue}"
        ]
    },
    "gemfile": {
        "default_ivalue": "${PWD}/Gemfile",
        "*": [
            "export BUNDLE_GEMFILE=\"${jervis_toolchain_ivalue}\""
        ]
    },
    "jdk": {
        "default_ivalue": "openjdk7",
        "openjdk6": [
            "export JAVA_HOME=\"${HOME}/java/openjdk6\"",
            "export PATH=\"${JAVA_HOME}/bin:${PATH}\"",
            "java -version"
        ],
        "openjdk7": [
            "export JAVA_HOME=\"${HOME}/java/openjdk7\"",
            "export PATH=\"${JAVA_HOME}/bin:${PATH}\"",
            "java -version"
        ],
        "oraclejdk7": [
            "export JAVA_HOME=\"${HOME}/java/oraclejdk7\"",
            "export PATH=\"${JAVA_HOME}/bin:${PATH}\"",
            "java -version"
        ],
        "oraclejdk8": [
            "export JAVA_HOME=\"${HOME}/java/oraclejdk8\"",
            "export PATH=\"${JAVA_HOME}/bin:${PATH}\"",
            "java -version"
        ]
    },
    "python": {
        "default_ivalue": "2.7",
        "2.6": [
            "set +x",
            "echo \"$ source \\\"${HOME}/virtualenv/python2.6/bin/activate\\\"\"",
            "source \"${HOME}/virtualenv/python2.6/bin/activate\"",
            "set -x",
            "python --version",
            "pip --version"
        ],
        "2.7": [
            "set +x",
            "echo \"$ source \\\"${HOME}/virtualenv/python2.7/bin/activate\\\"\"",
            "source \"${HOME}/virtualenv/python2.7/bin/activate\"",
            "set -x",
            "python --version",
            "pip --version"
        ],
        "3.2": [
            "set +x",
            "echo \"$ source \\\"${HOME}/virtualenv/python3.2/bin/activate\\\"\"",
            "source \"${HOME}/virtualenv/python3.2/bin/activate\"",
            "set -x",
            "python --version",
            "pip --version"
        ],
        "3.3": [
            "set +x",
            "echo \"$ source \\\"${HOME}/virtualenv/python3.3/bin/activate\\\"\"",
            "source \"${HOME}/virtualenv/python3.3/bin/activate\"",
            "set -x",
            "python --version",
            "pip --version"
        ],
        "3.4": [
            "set +x",
            "echo \"$ source \\\"${HOME}/virtualenv/python3.4/bin/activate\\\"\"",
            "source \"${HOME}/virtualenv/python3.4/bin/activate\"",
            "set -x",
            "python --version",
            "pip --version"
        ],
        "pypy": [
            "set +x",
            "echo \"$ source \\\"${HOME}/virtualenv/pypy/bin/activate\\\"\"",
            "source \"${HOME}/virtualenv/pypy/bin/activate\"",
            "set -x",
            "python --version",
            "pip --version"
        ],
        "pypy3": [
            "set +x",
            "echo \"$ source \\\"${HOME}/virtualenv/pypy3/bin/activate\\\"\"",
            "source \"${HOME}/virtualenv/pypy3/bin/activate\"",
            "set -x",
            "python --version",
            "pip --version"
        ]
    },
    "rvm": {
        "default_ivalue": "1.9.3",
        "*": [
            "set +x",
            "echo \"$ source \\\"${HOME}/.rvm/scripts/rvm\\\"\"",
            "source \"${HOME}/.rvm/scripts/rvm\"",
            "if ! rvm list | grep -q \"${jervis_toolchain_ivalue}\";then",
            "  rvm install \"${jervis_toolchain_ivalue}\"",
            "  rvm \"${jervis_toolchain_ivalue}\" do gem install bundler",
            "fi",
            "export JERVIS_GEMSET=\"${jervis_toolchain_ivalue}@${JERVIS_PROJECT}-${BUILD_NUMBER}\"",
            "rvm use \"${JERVIS_GEMSET}\" --create",
            "set -x",
            "rvm current",
            "ruby --version"
        ]
    }
}
